{
  "identifier": "SentryMapper",
  "title": "Sentry mapper",
  "description": "A webhook configuration to map Sentry Comments to Port",
  "icon": "Deployment",
  "mappings": [
    {
      "blueprint": "SentryComments",
      "entity": {
        "identifier": ".body.data.comment_id",
        "title": "Comment Event",
        "properties": {
          "action": ".body.action",
          "comment": ".body.data.comment",
          "project": ".body.data.project_slug",
          "comment_id": ".body.data.comment_id",
          "issue_id": ".body.data.issue_id",
          "timestamp": ".body.data.timestamp"
        }
      }
    }
  ],
  "enabled": true,
  "security": {
    
  }
}